{
	"info": {
		"_postman_id": "4ce78885-89ce-491b-8227-59ec10757b76",
		"name": "bk-transactions-billing",
		"schema": "https://schema.getpostman.com/json/collection/v2.1.0/collection.json"
	},
	"item": [
		{
			"name": "processTransactionsMovilbox",
			"request": {
				"method": "POST",
				"header": [],
				"url": {
					"raw": "http://localhost:8080/bk-transaction-billing/processTransactionsMovilbox/?idVenta=9800",
					"protocol": "http",
					"host": [
						"localhost"
					],
					"port": "8080",
					"path": [
						"bk-transaction-billing",
						"processTransactionsMovilbox",
						""
					],
					"query": [
						{
							"key": "idVenta",
							"value": "9800"
						}
					]
				}
			},
			"response": []
		},
		{
			"name": "initTransactionBilling",
			"request": {
				"method": "POST",
				"header": [],
				"url": {
					"raw": "http://localhost:8080/bk-transaction-billing/initTransactionMovilbox",
					"protocol": "http",
					"host": [
						"localhost"
					],
					"port": "8080",
					"path": [
						"bk-transaction-billing",
						"initTransactionMovilbox"
					]
				},
				"description": "Esta operacion incializa el proceso, toma los registros de la base de datos y actualiza el campo status de CARGED a QUEUED, luego los manda a la cola SQS"
			},
			"response": []
		},
		{
			"name": "test",
			"request": {
				"method": "GET",
				"header": [],
				"url": {
					"raw": ""
				},
				"description": "Esta operación valida el estado del servicio"
			},
			"response": []
		}
	],
	"protocolProfileBehavior": {}
}